Analysis of NYPD 2011: Stop and Frisk
…
On first glance it seems like there are some weird ages that are recorded. Lets take a look at the data

sqf %>%
  count(age)

# A tibble: 137 x 2
     age     n
   <dbl> <int>
 1     0     4
 2     1    86
 3     2    10
 4     3     8
 5     4     1
 6     5    19
 7     6     4
 8     7     2
 9     9     3
10    10     7
#  with 127 more rows

sqf %>%
  count(age) %>% 
  arrange(desc(age))

# A tibble: 137 x 2
     age     n
   <dbl> <int>
 1   999    76
 2   550     1
 3   455     1
 4   416     1
 5   387     1
 6   369     1
 7   365     1
 8   341     1
 9   335     1
10   334     1
#  with 127 more rows
…
Next, finding the probability of being arrested in a specific precinct and month given you are stopped.

sqfarstprob <- sqf %>%
  mutate(pct = as.factor(pct)) %>% 
  count(pct, month, arstmade) %>% 
  group_by(pct, month) %>%
  mutate(pctmonthtotal = sum(n)) %>%
  mutate(arstpropor = n/pctmonthtotal) %>% 
  filter(pct %in% toptenpct$pct) %>% 
  filter(arstmade == "Y")

sqfarstprob

# A tibble: 120 x 6
# Groups:   pct, month [120]
   pct   month arstmade     n pctmonthtotal arstpropor
   <fct> <ord> <chr>    <int>         <int>      <dbl>
 1 23    Jan   Y           15           339     0.0442
 2 23    Feb   Y           11           177     0.0621
 3 23    Mar   Y           13           113     0.115 
 4 23    Apr   Y            3           112     0.0268
 5 23    May   Y            5           108     0.0463
 6 23    Jun   Y            5           107     0.0467
 7 23    Jul   Y            7           119     0.0588
 8 23    Aug   Y            4           110     0.0364
 9 23    Sep   Y            5           116     0.0431
10 23    Oct   Y            5           221     0.0226
#  with 110 more rows
…
